disease_data_info
…
#joining air & disease
air_quality_disease <- left_join(air_quality, disease_zip, by = c('zip_code', 'year', 'month', 'day')) %>%
  select(-extract_date) %>%
  filter(!(year == '2020' & month == 'January'),
         !(year == '2020' & month == 'February'))

air_quality_disease %>%
  filter(borough == 'Manhattan')

## # A tibble: 4,171 × 33
##     year month  day   source   site_id   poc units    daily_aqi_value site_name
##    <int> <chr>  <chr> <chr>      <dbl> <dbl> <chr>              <dbl> <chr>    
##  1  2020 March  01    AQS    360610079     1 ug/m3 LC              22 IS 45    
##  2  2020 March  04    AQS    360610079     1 ug/m3 LC              15 IS 45    
##  3  2020 March  07    AQS    360610079     1 ug/m3 LC              18 IS 45    
##  4  2020 August 07    AQS    360610079     1 ug/m3 LC              46 IS 45    
##  5  2020 August 10    AQS    360610079     1 ug/m3 LC              54 IS 45    
##  6  2020 August 13    AQS    360610079     1 ug/m3 LC              45 IS 45    
##  7  2020 August 16    AQS    360610079     1 ug/m3 LC              30 IS 45    
##  8  2020 August 19    AQS    360610079     1 ug/m3 LC              36 IS 45    
##  9  2020 August 22    AQS    360610079     1 ug/m3 LC              41 IS 45    
## 10  2020 August 25    AQS    360610079     1 ug/m3 LC              38 IS 45    
## # ℹ 4,161 more rows
## # ℹ 24 more variables: daily_obs_count <dbl>, percent_complete <dbl>,
## #   aqs_parameter_code <dbl>, aqs_parameter_desc <chr>, cbsa_code <dbl>,
## #   cbsa_name <chr>, state_code <dbl>, state <chr>, county_code <chr>,
## #   county <chr>, pollutant <chr>, measurement <chr>, value <dbl>,
## #   scaled_value <dbl>, zip_code <dbl>, sfg_id <dbl>, point_id <dbl>, x <dbl>,
## #   y <dbl>, total_ed_visits <int>, ili_pne_visits <int>, …
…
#cleaned joined disease & zip data
write_csv(disease_zip, 'data/cleaned_data/disease_zip.csv')

#joined air & disease + zip data
write_csv(air_quality_disease, 'data/cleaned_data/air_quality_disease.csv')

#not many NAs
sum(is.na(air_quality_disease))

## [1] 2795

#only december 2022 values/data is missing.
air_quality_disease[!complete.cases(air_quality_disease), ]

## # A tibble: 559 × 33
##     year month    day   source   site_id   poc units   daily_aqi_value site_name
##    <int> <chr>    <chr> <chr>      <dbl> <dbl> <chr>             <dbl> <chr>    
##  1  2022 December 04    AQS    360050080     3 ug/m3 …              37 MORRISAN…
##  2  2022 December 05    AQS    360050080     3 ug/m3 …              43 MORRISAN…
##  3  2022 December 06    AQS    360050080     3 ug/m3 …              41 MORRISAN…
##  4  2022 December 07    AQS    360050080     3 ug/m3 …              40 MORRISAN…
##  5  2022 December 08    AQS    360050080     3 ug/m3 …              17 MORRISAN…
##  6  2022 December 09    AQS    360050080     3 ug/m3 …              19 MORRISAN…
##  7  2022 December 10    AQS    360050080     3 ug/m3 …              25 MORRISAN…
##  8  2022 December 11    AQS    360050080     3 ug/m3 …              24 MORRISAN…
##  9  2022 December 12    AQS    360050080     3 ug/m3 …              26 MORRISAN…
## 10  2022 December 13    AQS    360050080     3 ug/m3 …              23 MORRISAN…
## # ℹ 549 more rows
## # ℹ 24 more variables: daily_obs_count <dbl>, percent_complete <dbl>,
## #   aqs_parameter_code <dbl>, aqs_parameter_desc <chr>, cbsa_code <dbl>,
## #   cbsa_name <chr>, state_code <dbl>, state <chr>, county_code <chr>,
## #   county <chr>, pollutant <chr>, measurement <chr>, value <dbl>,
## #   scaled_value <dbl>, zip_code <dbl>, sfg_id <dbl>, point_id <dbl>, x <dbl>,
## #   y <dbl>, total_ed_visits <int>, ili_pne_visits <int>, …
…
